Word,Probability
the,0.0773238621371
to,0.0681820144326
is,0.057232749314
know,0.0446849895527
if,0.04348614412
of,0.0425289747509
wanted,0.0409020109528
can,0.0380255681311
this,0.037299352033
in,0.0368204815521
what,0.035750177337
and,0.0338607229137
where,0.0320634138545
for,0.0319322769706
take,0.0306904974697
source,0.0292798999028
gelatin,0.0286386184324
she,0.0277423793667
it,0.026408754309
asked,0.0235363287254
how,0.0226236263362
inquired,0.021583400855
you,0.0213552981347
requested,0.0210968034479
be,0.0197265537502
have,0.0193582817515
are,0.0192428955163
that,0.0191527433801
with,0.0188715184147
do,0.0187155237845
your,0.0186091918217
buy,0.0185214918004
would,0.0169369466256
vitamin,0.0167353228084
does,0.015997023498
our,0.015827684289
or,0.0156801565784
oil,0.0146256230477
he,0.0145718226638
we,0.0145262328995
like,0.0142493317444
her,0.0139605997066
still,0.0135763765856
much,0.0134762238634
was,0.0134467302664
on,0.0133571695233
called,0.0132923113483
not,0.0132649024074
fish,0.0122243356974
purchase,0.0122176208249
from,0.0117925786918
has,0.0117514965217
there,0.0112810641774
date,0.0107580431874
expiration,0.0107118171022
expired,0.0104667347991
an,0.0104567908944
my,0.010376275034
looking,0.0103475075604
protein,0.0103428296584
should,0.0103281409249
use,0.0102996427258
about,0.00990765386809
find,0.00988143845355
ask,0.0097558194733
any,0.00948402736624
at,0.00895218738571
day,0.00887934059579
gummies,0.00877074790168
me,0.00848718634062
will,0.00832396860307
wants,0.00826928926662
taken,0.00803868251788
why,0.00800175299207
one,0.00788204080616
these,0.00787180490926
taking,0.00773670822739
had,0.00773006851148
nan,0.00771971496437
used,0.00769810181772
no,0.00764958723295
they,0.00751480694504
when,0.00747727446548
more,0.00746152974066
hair,0.00736718416207
could,0.00736686993913
contain,0.00734385343892
order,0.00731194934822
calcium,0.00718807777756
make,0.00705866355719
stated,0.00694483542271
hsn,0.00680133100128
bottle,0.00675588102108
good,0.00670348071919
time,0.00664863542276
am,0.00663833817319
d3,0.00657996245477
tablets,0.00654468429452
probiotic,0.00652184553245
purchased,0.00641268018422
help,0.00635905372208
available,0.00635832642989
manufactured,0.0063397463645
after,0.00630669358172
them,0.00629263289021
prod,0.00621695887414
than,0.00616746230055
out,0.00608109878598
mg,0.00605439430789
get,0.00600267809313
two,0.00584154256587
nails,0.00582713128291
bars,0.00578243078813
skin,0.0057630512121
many,0.00572812677868
samples,0.00566966132322
biotin,0.00565794349546
strength,0.0056376135125
same,0.00558853637154
whey,0.0055625658761
said,0.00543707915034
dha,0.00539261883342
amount,0.0053442877751
melatonin,0.00532726146612
b12,0.00528565486936
but,0.00522355660723
because,0.00521734397453
daily,0.0052005911534
all,0.00514226756412
says,0.00513131726979
been,0.00507431442591
send,0.00501620606527
ate,0.00497862706077
label,0.00495219573646
as,0.00485062775311
his,0.00484172006196
softgels,0.00479062163901
between,0.00478865435539
together,0.00476128073695
other,0.00475387114463
long,0.00472641788698
complex,0.00463146027605
epa,0.00459159332823
so,0.00457305083874
per,0.00456952213517
just,0.00450692731937
see,0.00448645219113
difference,0.00447994822436
please,0.00446525063276
made,0.00445852198929
cannot,0.00440349150367
cranberry,0.00434079943238
side,0.00421840678068
pork,0.00420515329359
doctor,0.00415583899293
mix,0.00415086496537
osteo,0.00413693722862
advanced,0.00412571341998
once,0.00405945209716
free,0.00405640867561
different,0.00403327562239
effects,0.00402544281192
yeast,0.00402223409679
acid,0.00401992413407
multi,0.00401169693119
iron,0.00397858662384
also,0.00391783112091
need,0.00390310513963
store,0.00386119439006
magnesium,0.00384744638448
powder,0.00384577072318
contains,0.0037977193436
up,0.00375328409078
refrigerated,0.00375146975813
vitamins,0.0037452024495
manufacture,0.00369779866961
old,0.00362822683884
acidophilus,0.00361942554702
formula,0.00356551553846
triple,0.00356293755065
chocolate,0.00354379524518
natural,0.00351381637528
which,0.00347440895917
ingredients,0.00347321332069
some,0.00346408933749
coupon,0.00345271977196
medications,0.00339404932814
pills,0.0033921549696
daughter,0.00335833679943
sample,0.00335147884486
niacin,0.00327685370587
form,0.0032658175776
were,0.00325268160719
softgel,0.00322589099419
past,0.00321487128467
glucosamine,0.00319105066223
bought,0.00316776898675
year,0.0031483151584
water,0.00314081606204
blood,0.00307823189325
us,0.00304847458185
request,0.00303952799643
lot,0.00298930751449
only,0.00297450186911
love,0.00293284031503
son,0.00293058252467
capsules,0.00289792046506
by,0.00289592053393
red,0.00287761792466
thank,0.00287172105581
soy,0.00286405767875
did,0.00284050737185
now,0.00283059212282
color,0.00282422943238
cinnamon,0.00280968201313
weight,0.00280577976685
stores,0.00278255428064
liquid,0.00275398994532
14,0.00274262457284
coq10,0.00273752725188
okay,0.00273039358737
serving,0.0027217150162
sugar,0.00268562151722
three,0.00268522456204
ok,0.00268437390475
information,0.00268427896617
tablet,0.00267766135105
super,0.00267509600075
want,0.0026691242217
scoop,0.00264872516316
opening,0.00263092704185
shake,0.00260381806749
rice,0.00259410711205
over,0.00258881528285
each,0.00255287425847
requesting,0.00254694863327
mcg,0.00252389947711
got,0.00250523400729
2013,0.00249772260156
longer,0.00249745856099
drink,0.00249140784077
child,0.00247476309533
place,0.00245981409855
saw,0.00245966718734
size,0.00245773457026
flex,0.00245425954392
supposed,0.00243474400863
loves,0.00241529148915
co,0.00241159383181
omega,0.00240957927782
pill,0.00240183726571
supplements,0.00240178396581
say,0.00239279224193
put,0.00238266825313
animal,0.0023675181351
amounts,0.00236358672221
sourced,0.00235329145447
before,0.00235162905234
1000mg,0.00235011957939
told,0.00234228409297
through,0.00232006002456
changed,0.00231796581843
joint,0.00231779603161
phone,0.00230677664199
come,0.00230226935455
both,0.00229363565925
synthetic,0.00229008529517
work,0.0022654524645
give,0.00226368950717
try,0.00226042133501
smaller,0.0022478894916
collagen,0.00222838587149
too,0.00222387714319
number,0.00219928601111
really,0.00219078751711
plus,0.00218609884819
states,0.00216725071616
ginkgo,0.00216636861962
medication,0.002157847935
go,0.00215298046059
its,0.00215069264742
very,0.00214299348379
noticed,0.00213436807781
into,0.00213129740343
local,0.00211945283026
shakes,0.00211473974686
sublingual,0.00210353234095
making,0.00208177884411
able,0.00206358709588
refrigerate,0.00205705504043
takes,0.00205565280445
double,0.00204031437593
women,0.00203575408609
multivitamin,0.00203515451492
manufacturing,0.00203456018985
ester,0.00202397562621
meal,0.00202003217283
nutrajoint,0.00200485010832
1000,0.00200333430991
supplement,0.00200304801616
bi,0.00200108501847
few,0.00199912626922
recommended,0.00199098346905
ago,0.00198955521144
fridge,0.00196986516351
separate,0.00196390599679
bottles,0.00196169791904
months,0.00195692707693
left,0.00195428919073
food,0.00194979817677
creatine,0.00194451160414
500mg,0.00193232287616
having,0.00192919357554
dissolve,0.00192882756453
cut,0.00192608884479
2014,0.00191527757259
while,0.00189641894312
customer,0.00188260622021
cant,0.00187352961788
points,0.001856783314
garlic,0.00185285295276
may,0.00185126961897
consumers,0.00185086481869
received,0.00183556499602
times,0.00183452235481
start,0.00183288919288
bar,0.00183052237289
caffeine,0.00182450185856
found,0.0018243794441
biloba,0.00181469186928
club,0.00180279910116
challenge,0.0017942546501
pure,0.00175952626203
website,0.00174789991397
13,0.00174061470294
walmart,0.00173836951087
country,0.00171613816777
chewable,0.00171362904127
multiple,0.00171090440868
wondering,0.0017039365501
tell,0.00170275271915
msm,0.00169753799438
500,0.00169177027339
new,0.00169058896743
being,0.00168990108347
keep,0.00167003411648
china,0.0016680858235
kind,0.00166203690976
capsule,0.00166182818603
palmetto,0.0016576167335
anything,0.0016538816803
biflex,0.00165121645727
diabetes,0.00164948664262
needs,0.00164878107698
cream,0.00164276293564
off,0.00164165789606
health,0.00164116040944
30,0.00164060268329
since,0.00163997450772
break,0.00163944321227
sent,0.00163689469774
sure,0.00163488727133
suggested,0.00163210704424
took,0.00162616283509
half,0.00162526560619
1200mg,0.00162379374155
without,0.00162178062769
back,0.00160832135877
heard,0.00160819230117
body,0.00160754833373
folic,0.00160452798111
support,0.00159425016259
best,0.00159314333228
tea,0.00159162140215
direct,0.00159115381859
using,0.00157452883257
going,0.00157408753148
concerned,0.00157283331089
refrigerator,0.00157257247282
gluten,0.00156807563365
vit,0.00155606866864
cholesterol,0.00155180666747
high,0.00154974383765
flaxseed,0.00154692408871
kosher,0.00154530432355
sell,0.00154440448335
lecithin,0.00153334912779
release,0.00153209749153
thanks,0.00152934019849
solgar,0.00152757596842
stevia,0.00152605209161
vegetarian,0.00152540972292
online,0.00152469304139
milk,0.00152254441505
type,0.00151703298631
their,0.00151697686607
comes,0.00151679870858
peanut,0.0015099713927
quick,0.00150991721827
lutein,0.0015088081673
years,0.00150638339787
open,0.00150632487337
weeks,0.00149295575133
raw,0.00148627396547
materials,0.0014745691688
directly,0.00146377193131
better,0.00146104448239
catalog,0.0014577561524
100,0.00145192626986
opened,0.00145052504136
com,0.00144916919476
question,0.00144899536273
system,0.00144550547659
trying,0.00144410661022
coconut,0.00143401698265
state,0.00143091274401
throughout,0.00142943653292
interested,0.00142587957397
concerns,0.00142106760747
helps,0.00140922510302
safe,0.00140693644604
split,0.00140076319092
functions,0.00138170183744
complete,0.00137859610739
area,0.00137373898649
probiotics,0.00136541044106
whole,0.0013619205643
dog,0.00135806107604
then,0.00135655194856
instead,0.00135598915568
looks,0.00134493932866
great,0.00133247934351
under,0.00133234857901
pack,0.00133119809315
company,0.00132378270682
loss,0.00132118998853
coming,0.00131952941868
elemental,0.00130925378622
suitable,0.00130665970378
getting,0.00130178748289
caplets,0.00130037456328
potassium,0.0012977656467
bounty,0.00129465195645
gmo,0.0012839393619
read,0.00128250818966
origin,0.00128172364148
husband,0.00127600048018
nature,0.00127364309332
extra,0.00127323280663
along,0.00126853040996
equivalent,0.00125819550295
iu,0.00125693137624
cause,0.00125585932472
look,0.00125365795672
directions,0.00125292767714
discontinued,0.00124477691453
interact,0.00124380130328
another,0.00124300822509
recently,0.00123644229817
stomach,0.00123153092587
dose,0.00122976285597
rx,0.00122385805032
3mg,0.00121546526308
dosage,0.0012073625492
verify,0.00120556734304
swallow,0.00120390859787
days,0.00120375428628
pressure,0.0012006851837
down,0.00119856982634
met,0.00119344629983
gummy,0.00119053043258
carry,0.00118426278473
way,0.00118367067442
anymore,0.00118342258284
contained,0.00118082520735
liver,0.00118070298933
needed,0.00117811122101
organic,0.0011758711539
strawberry,0.00117433566854
flavor,0.00117432006897
bulk,0.00117420557069
sold,0.00117395886422
hi,0.00117102198502
box,0.00116629487548
normal,0.00116582352898
treat,0.00116257212394
vm,0.00115947539165
last,0.00115892173482
stop,0.00115219240075
mean,0.00115141699033
who,0.00114931820449
2000iu,0.00114882012011
diabetic,0.00114435347693
him,0.00114423180772
vanilla,0.00114326696825
odorless,0.00114052105321
price,0.00114008331466
5000iu,0.0011359634016
people,0.00113256480553
spread,0.00113214328541
usp,0.00113108387235
energy,0.00113051726747
test,0.00112467236302
certified,0.00112445880994
arginine,0.00112237844801
count,0.00112236685161
compare,0.0011220140799
let,0.00111995578398
muscle,0.00111913311205
something,0.00111689708835
children,0.00110597867978
50,0.00110339813839
butter,0.00110190268225
email,0.0011011585077
quality,0.00109678561283
differences,0.00109563328386
less,0.00109499649376
men,0.00108474126797
change,0.00108185886276
well,0.00108063575919
tested,0.0010798280841
arthritis,0.00107297420309
hello,0.00106815711954
regarding,0.00105958994954
most,0.001059562861
locate,0.00105525166383
listed,0.00105363838069
loxin,0.00105202482171
white,0.00104692456019
brand,0.00104600294401
soft,0.00103865553326
person,0.00103404621427
heavy,0.00103209642399
patients,0.00102937434554
every,0.00102727506477
office,0.0010261114642
edge,0.001022433332
yellow,0.00102065170641
flush,0.00101970621029
first,0.00101950509341
mercury,0.00101910981149
ambassador,0.00101260300171
lead,0.00100923723119
however,0.00100912120577
life,0.00100321033463
citrate,0.000998759840602
name,0.000998166238631
enzyme,0.000992769801823
zinc,0.000992395188475
ubiquinol,0.000990760263457
testing,0.000990042395993
cloudy,0.000988611225617
heart,0.000986250703846
sundown,0.000972387639636
week,0.00096931174197
offer,0.000969296514097
eat,0.000963707599415
wife,0.000958880600744
grow,0.000955048576688
trouble,0.000953060127208
provide,0.000952093915864
stored,0.000951054739151
doesn,0.000949922110862
pharmacist,0.000949501678589
clear,0.000947092326135
artificial,0.000944659080022
expires,0.000942030752287
coated,0.000940100062232
friend,0.000938078736493
results,0.000935329177558
green,0.000934185639845
effect,0.000932655691345
gentle,0.000929424954029
5000mcg,0.000928979772778
larger,0.000924939023521
flax,0.000918467586063
twice,0.00091538148667
exp,0.000914718869103
previously,0.00091424600179
inquiring,0.000911674756856
here,0.000910479336707
fat,0.000905302441086
coffee,0.000903174369374
amino,0.000895911557005
works,0.000892582781924
balance,0.000892385556379
caramel,0.000890468937521
xtra,0.000888237052031
during,0.00088484726636
mail,0.000880318076675
tree,0.00087908609657
speak,0.00087408828073
levels,0.00087216888866
castor,0.000871578873356
tongue,0.000871320698847
car,0.000870343855761
pharmacy,0.00087033191763
corn,0.000869031697588
alpha,0.000868854672045
000,0.000858815857206
metals,0.000857882859103
100mg,0.000854512600264
5000,0.000852626869318
else,0.000851250712223
buying,0.000850075575059
silica,0.000847285885779
tried,0.000846472369745
adult,0.000843897095027
chewed,0.000841668357743
replacement,0.000839468314313
disney,0.000838930412866
blend,0.000838699097716
thistle,0.000838196462814
soluble,0.000836968014379
vegetable,0.000827747593688
01,0.000827342842975
non,0.00082463423629
000iu,0.000824060675434
ve,0.000818242689249
consume,0.000817195373177
rtd,0.000816591970106
600mg,0.000816132221917
nutra,0.000812665686372
carnitine,0.000809337758592
someone,0.000806746341506
180,0.000804730929632
added,0.000802476042508
similar,0.000801267592265
oils,0.000797835985139
hard,0.0007976382337
accidentally,0.000796378708121
cod,0.000795317313147
knox,0.000795141343571
glutamine,0.000787701587431
item,0.000787375207015
code,0.000786979799676
shellfish,0.00078626730156
affect,0.000785109000096
receive,0.000784381944346
couple,0.000783942151519
family,0.000780055366807
meals,0.000777712252458
constipation,0.000777242859635
darker,0.00077685376549
seal,0.000774966731194
guys,0.000774464960588
again,0.000773943496659
cancer,0.000772662403199
until,0.000772024045204
workout,0.000770199482076
pain,0.000768954502453
surgery,0.000768329039198
confirm,0.000765002416687
age,0.000764749927936
rewards,0.000764222920516
baked,0.000762144497228
nb,0.000759356474902
thinner,0.000756393796967
18,0.000755039163073
extract,0.000754658283955
allergic,0.000751597861463
fermentation,0.000751478304723
right,0.000750544931603
1000mcg,0.000749525170905
often,0.000748292955398
approved,0.000747825081173
working,0.000744502254295
went,0.000744403455448
list,0.000742829117027
meant,0.000740418819947
4200mg,0.000739170848911
night,0.000739169414238
questions,0.00073812488516
urine,0.000738075836657
away,0.0007377954847
helping,0.000737629792769
letter,0.000737254747093
formulas,0.000735419055829
evening,0.000731796641555
continue,0.000730150258118
big,0.000729023362971
dark,0.000729005618415
isolate,0.000727381435509
facts,0.000726651786336
vinegar,0.000726405495385
four,0.000724997461618
lose,0.000723980608062
crunch,0.000723222464139
frosty,0.000723209434118
brewers,0.000723109900739
full,0.000722780031405
started,0.000719706133796
didn,0.000719062689268
advised,0.00071734117834
physician,0.000715955836059
prescribed,0.000715888481626
never,0.000714226886414
ambassadors,0.0007124887973
calling,0.000712173471196
apple,0.000710794450183
higher,0.00070806667444
nutrition,0.000703575813088
medical,0.00070161236111
bone,0.000701287372284
inside,0.000701169346683
thing,0.000700996232114
coating,0.000700219930267
20,0.000699933321444
happen,0.000699584176781
1000iu,0.00069805973648
hyaluronic,0.000696619667967
pregnant,0.00069655044629
potency,0.00069398782668
little,0.00068948467066
fiber,0.000687801708156
finding,0.000685447356128
print,0.000684401350384
25,0.000684297082963
flavors,0.000683260159093
program,0.000682999406379
sodium,0.000682849631894
juice,0.000682176386046
call,0.000681321176308
term,0.000680854804903
placed,0.000679867522149
anywhere,0.000678453041104
came,0.000675683302608
joints,0.000674926312241
correct,0.000674231730405
retailer,0.000672771411831
confused,0.000672660208302
means,0.0006716172841
optifiber,0.000671191825263
04,0.000668182184322
prime,0.000666768638922
gave,0.000666465203579
ensure,0.000664526507318
temperature,0.000663916076523
month,0.000661037988564
large,0.00065944472026
400iu,0.00065753020789
dr,0.000657067700066
metabolism,0.000655909677112
everyday,0.000655852855924
currently,0.000655305814383
patient,0.000652902944605
don,0.000651325143316
brands,0.000648265591802
based,0.000647447714543
q10,0.000645578106362
fda,0.000645173055349
labels,0.000640956776753
possible,0.000639962231475
kept,0.000639295103822
servings,0.000637845388837
stock,0.000636863411907
primrose,0.00063662504893
released,0.000635688673782
absorbed,0.000635223909051
line,0.000632989028241
400,0.000630858489413
fatty,0.000623442354162
content,0.000622976629097
intended,0.000622331318464
hot,0.000621996701003
broken,0.000620668811254
bigger,0.000618277045677
directed,0.0006179748299
paper,0.000615707558563
breakdown,0.000612377346051
happens,0.000612241699003
gain,0.000611117244282
add,0.000610991971954
previous,0.00061077664616
part,0.000608653061314
sick,0.000607873683395
dv,0.000607726026153
thought,0.000603974288737
benefits,0.000601674641921
recommend,0.000599842647144
2000,0.000599011780442
morning,0.000598353844345
several,0.000598039992926
address,0.000593356767701
thinning,0.000589820968374
expensive,0.00058965904336
companies,0.000588266278876
feel,0.000587914082274
happy,0.000586251686454
given,0.000580087370034
always,0.00057940973986
packets,0.000576457683351
knees,0.00057494856987
nail,0.000573283235481
helped,0.000573083153458
problems,0.000571239994861
instructions,0.000567973240831
papaya,0.000567024656679
walgreens,0.00056317791564
antibiotics,0.000560765154153
stuff,0.000558599116704
oz,0.000555244771584
lipoic,0.000554657509293
taste,0.000552728432718
within,0.000551309488767
carrying,0.000551309001874
80,0.000546938486115
fine,0.000546103399318
appreciate,0.000545192317244
feels,0.000540187305275
check,0.000538914597009
usually,0.000536302812576
nutritional,0.000536215676162
000mg,0.000534685041794
site,0.000532448795665
retail,0.000528744502395
75,0.000527484908695
hours,0.00052281681438
acids,0.000521863749905
money,0.000518763439538
bit,0.000518097958059
yet,0.00051806854522
uses,0.000507035900563
realize,0.000506674603227
cold,0.000506470539859
highly,0.000505440911048
rf,0.000501688123392
such,0.000500299898903
reason,0.000488854928232
might,0.000486884545012
already,0.000484448963207
include,0.000464533279148
writing,0.000464407123132
even,0.000464340005949
things,0.000460440171867
today,0.000458579615599
diet,0.000453157181355
fruit,0.000445967793753
lower,0.000445756845387
shelf,0.000445360237677
rather,0.000444332826879
those,0.000441849451845
follow,0.000441476555472
done,0.000437242725007
difficult,0.00043539596525
low,0.000434266645715
run,0.000433347252298
benefit,0.000429967001688
enough,0.000429748327642
care,0.000426436552484
re,0.000425019968991
doing,0.000421091187972
ls,0.000419628106427
21,0.00040855331383
hoping,0.00039671060598
actually,0.000396427736278
dear,0.000357556764967
return,0.000352627293652
absolutely,0.000284607632737
