Word,Probability
the,0.0797825918453
that,0.0552170779294
and,0.0532392735823
she,0.0477099215825
is,0.0455947966805
to,0.0430542037474
stated,0.0424689071672
not,0.0418444561974
of,0.0394162402422
has,0.0389032447232
it,0.0388428947669
this,0.0350756802706
are,0.0350032988066
her,0.0322118580154
in,0.031204614948
said,0.0272221534968
for,0.0265617656099
have,0.0263209227264
was,0.0254873920235
like,0.0254573235196
bottle,0.0252853029654
taste,0.0249034527517
with,0.0226107263142
on,0.0210311191413
because,0.0207105786133
he,0.0203452388265
odor,0.02032699689
softgels,0.0199548380791
they,0.0193979927576
no,0.0180555294668
called,0.017554520962
had,0.0172561316881
did,0.0168269206043
very,0.0166429309766
my,0.0164622362117
all,0.0161942943763
been,0.0158959565187
mb,0.015641462492
them,0.0155761929269
14,0.0155010124072
these,0.015465595488
there,0.0154195328773
taking,0.0153151247513
tablets,0.0148858409704
claims,0.0147161255373
nails,0.0147022304528
does,0.0146460072045
as,0.0144851020706
gummies,0.0142108494273
together,0.0141766208192
if,0.0136063190356
too,0.0135527522747
but,0.0134910365252
stuck,0.013257783108
purchased,0.0132544328356
were,0.012999853788
can,0.0129796839221
one,0.0129360373049
an,0.0127164554266
hair,0.012635303206
be,0.0126294723145
swallow,0.0126262996021
bad,0.0121603285259
any,0.0119290833527
strong,0.0118944435425
hard,0.0116311889957
oil,0.0114532135772
when,0.0112729614354
or,0.0111768265744
fish,0.0111335151495
smell,0.0109385918408
at,0.0109001783597
would,0.0107626094656
out,0.010755607907
bottles,0.0107217700797
some,0.0102555095301
also,0.010221470821
you,0.0101772927021
broken,0.0101766833434
after,0.0101357319198
says,0.0100276559212
from,0.0099474245017
his,0.0098004884459
take,0.00976031278957
capsules,0.00967845425042
know,0.00966866293322
am,0.0095523275023
lot,0.00952320666165
results,0.0094026183194
skin,0.00914028065919
do,0.00912983319178
so,0.0090064052589
pills,0.00883428041331
about,0.00882416390427
time,0.00880961283809
we,0.0087844802487
used,0.0087677195347
using,0.00876735909876
your,0.0087178894921
large,0.00863407556872
wanted,0.00849086570176
states,0.00841019344333
happy,0.00832774417383
vitamin,0.00815579216225
ja,0.00805610433428
smells,0.00795611372705
tm,0.00793185491458
big,0.00792896433502
two,0.00788622950556
back,0.00786260887778
use,0.00769601449483
just,0.00763799081823
up,0.00757443576843
now,0.00755660999838
bars,0.00755512772189
contains,0.00738402175876
refund,0.00735120118068
same,0.00732379942572
powder,0.00732071112746
what,0.00731134230338
pm,0.00726119302274
ck,0.00724376835625
work,0.00720837434353
lq,0.00720574902451
new,0.0071615296751
leaking,0.00709774843087
protein,0.00708869998977
dissatisfied,0.00708442478448
opened,0.00708365027135
took,0.00699201758595
explained,0.00694321793656
see,0.00687383269054
get,0.00685179722429
me,0.006768853377
seen,0.00669578439944
empty,0.00665416735364
label,0.00659539710559
still,0.00656562138304
our,0.0065455355808
hsn,0.00651781913686
formula,0.00651667301238
more,0.00651472267228
cvs,0.00646034722337
than,0.00644866534393
other,0.00643941139075
could,0.00638500838895
contacted,0.00634480111907
noticed,0.00633417156229
since,0.00627379093737
half,0.00623988905777
started,0.00619362176374
bought,0.00617716953318
30,0.00616313448073
tablet,0.00616244004637
will,0.00602502524491
over,0.005984816111
reported,0.005963259609
well,0.00592265785298
20,0.00591885573339
change,0.00590913185349
months,0.00582138050369
day,0.00577236377945
difficult,0.00574201514185
chocolate,0.00566956629193
should,0.00563486214376
really,0.00563426621304
last,0.00559638666688
years,0.0055832086856
rf,0.00556891434451
swallowing,0.00553963759615
prod,0.0055244770627
doesn,0.00546182869841
softgel,0.00541887752328
ab,0.00539638859743
why,0.00537692050189
difference,0.00536354556034
help,0.00532102859553
tastes,0.00531493445802
bottom,0.00530830271798
working,0.00529499171933
02,0.0052368631426
size,0.00519680036488
color,0.00515745850755
only,0.00499702355565
feels,0.00498852423199
red,0.00495920473798
before,0.00494991964323
pill,0.00492145343612
vitamins,0.00491949653912
which,0.0048805519756
01,0.00486307379442
feel,0.00483388066454
found,0.00480889588
inside,0.00480664487711
its,0.00475831498127
him,0.00475556096415
much,0.00473566962385
13,0.00469962245993
good,0.00468780245446
days,0.00465595220217
rash,0.00463142478607
few,0.0046120885276
spots,0.00460348294763
never,0.00455041083839
container,0.00452793729268
changed,0.00450902262591
capsule,0.00448282474793
tried,0.00447808220194
inquired,0.00443528954317
customer,0.00441568429246
19,0.00438963906384
make,0.0043882048093
number,0.00437702073001
having,0.00435623061345
03,0.00432334747649
different,0.00432037097237
per,0.00425315118056
fishy,0.00425206574397
didn,0.00420726282931
liquid,0.00419224639323
25,0.00417409673071
experiencing,0.00416149195473
experienced,0.00415524630126
difficulty,0.0041508997535
whole,0.0041406787276
both,0.00413967666897
flavor,0.00413262925135
disappointed,0.0040963247912
reports,0.0040870791903
face,0.00399951248707
cannot,0.00399061742557
coating,0.00398600573494
something,0.00397123146979
even,0.00396412307488
2014,0.00395417126324
while,0.00393948436629
got,0.00393741744164
way,0.00392491996215
however,0.00391541669146
how,0.00383606427008
upset,0.00383036200375
mim,0.00381284808615
smaller,0.00380527384815
want,0.00379606796787
ago,0.00379148145539
recently,0.0037902012601
made,0.00378425217581
soft,0.00377953763471
white,0.00376854696005
23,0.00375705605868
21,0.00369061388888
old,0.0036755500827
call,0.00365301762207
information,0.0036423584561
cut,0.0036377082677
down,0.00363764072257
first,0.00362648027769
look,0.00360450263646
caused,0.00359553075077
breaking,0.00359356892899
don,0.00358927025485
terrible,0.0035858493322
doctor,0.00358366791443
off,0.00356996924823
22,0.00356414304541
nan,0.00356294536817
say,0.00355409219379
satisfied,0.00352572577895
24,0.00352487086217
bar,0.00351988048409
horrible,0.00349536352203
weeks,0.00347661755849
then,0.00347234585573
store,0.0034721582628
reaction,0.00346373191588
saw,0.0034504834645
splitting,0.00342104543147
email,0.00341708362365
little,0.00341338886746
biotin,0.00338819250584
expiration,0.00338326973157
contain,0.00336875880118
asked,0.00336462910006
consumers,0.00336304294392
water,0.00333865910884
taken,0.00333494871465
better,0.00333190189504
26,0.00331753518354
return,0.00331109663777
body,0.0032854909253
through,0.00327988878308
18,0.00325911383937
normal,0.00324447607978
d3,0.00324416211872
purchase,0.00323866458595
into,0.00323580160267
us,0.00322125126433
mg,0.00320986300332
date,0.00320646057987
by,0.003199054495
many,0.00319866409102
pain,0.00318468791759
stomach,0.00317661492703
29,0.00316814500639
getting,0.0031511461048
please,0.00311154232011
ml,0.00309509179544
month,0.00307771836839
ve,0.00307279055891
brown,0.00307262489315
past,0.00306665975017
leaked,0.00303824985037
bitter,0.00303655724358
believes,0.00302928372786
find,0.00302071892455
open,0.00301649675991
28,0.00301227047468
js,0.00300905993832
unpleasant,0.00298823165482
year,0.00298384486299
husband,0.00298152142968
longer,0.00294580499685
again,0.00293295121174
dry,0.00290366289242
previous,0.00290269642116
week,0.00289119078406
04,0.00288669940077
provide,0.0028829516883
money,0.00286762729674
almost,0.00286057507449
strength,0.00281231427914
ingredients,0.00280822798366
went,0.00278863644327
able,0.00277765922719
going,0.00277642254188
crushed,0.00277464931158
felt,0.00275910409593
opening,0.00275814084858
formulation,0.00275158853712
go,0.00274840707362
nothing,0.0027471785114
calcium,0.00274589729472
texture,0.00274537745221
wants,0.00273310627996
symptoms,0.00269542770652
discontinued,0.00269186721377
box,0.00268679403444
developed,0.00268281470446
challenge,0.00265662201315
mix,0.00265331791138
tasted,0.00264196447092
may,0.00263805024513
due,0.00262866607492
break,0.00262511548194
problem,0.00261384396377
helped,0.00261274734981
read,0.00259295851383
anything,0.00258269779168
seal,0.00258044932279
mouth,0.00257990367621
broke,0.00257863129862
began,0.00255587870281
previously,0.00254602483893
stool,0.00254469073732
worse,0.00254352963583
benefit,0.00252110716638
unable,0.00251928785171
sugar,0.00250429628936
itching,0.00246776819134
caplets,0.00246314934213
night,0.00245851626211
buy,0.00244446882149
medical,0.00243677390322
darker,0.00243121798403
mixing,0.00242984588438
oily,0.00241955113441
claimed,0.00241716178978
sv,0.00241052960759
cause,0.00239720416516
reporter,0.0023840871754
ima,0.00237422558098
wrong,0.00236391024074
chew,0.00236324522417
right,0.0023602969332
issue,0.00235871239474
another,0.00235722879515
provided,0.0023437454544
takes,0.00234298023127
peanut,0.00233389773787
passing,0.00232416034017
soy,0.00232318536679
gels,0.00232268837736
tem,0.0023095405135
throat,0.00230744337591
caramel,0.00228358101495
dissolving,0.00228158925481
09,0.00227836885902
makes,0.00227311487787
around,0.00227264686454
worked,0.00227196811933
looks,0.00226549539197
whey,0.00226506978301
causing,0.00225348306561
every,0.00225312204649
thought,0.00224122279881
sleep,0.00223712453776
complex,0.0022261432541
brand,0.00222482686278
amount,0.00222326650556
long,0.00219899243927
think,0.00219436195368
fm,0.00219158643905
seem,0.00219023085889
vanilla,0.00219021242304
anymore,0.00218049336601
hasn,0.00216760360855
melatonin,0.002167268004
pure,0.00216371372449
where,0.00214661137268
second,0.00214254206981
27,0.00213977052048
being,0.00213783382853
odorless,0.00212725854906
need,0.00212273715169
stale,0.00211650170507
usually,0.00211348536542
thinks,0.00211230246548
itchy,0.0021112454563
ever,0.00210416196935
dioxide,0.00209745005531
left,0.00208680734994
08,0.00208282233391
experience,0.00207652350648
dissolve,0.0020744015689
front,0.00206777974203
titanium,0.00206055125878
less,0.00205854695895
melted,0.00205692967693
concerned,0.00205393453706
hands,0.00204443734822
stopped,0.00203941324384
awful,0.00203714770474
away,0.00203532115891
niacin,0.00203177688458
receipt,0.00202902577005
send,0.00202167396287
05,0.00201223864337
dried,0.00200756415073
contained,0.00200182717999
three,0.001999855354
ester,0.0019964679231
put,0.00199634416923
nail,0.00198784570048
chemical,0.00197659358084
without,0.00196502269661
effective,0.00196147802298
black,0.00195078319549
blood,0.0019448833299
improvement,0.00194136254302
denied,0.00193937880996
great,0.00193243288961
always,0.00192943347405
31,0.00192829635586
ls,0.00192746051843
shakes,0.00192650790095
filled,0.00192482193005
osteo,0.00192056105071
flat,0.00191783366308
coming,0.00191514506856
sweet,0.00191447051379
coated,0.00190241388407
within,0.00189524388316
consistency,0.00189505195143
dark,0.00188865138054
completely,0.00188783758517
once,0.00188657773248
smelled,0.00188153335312
told,0.00187384797164
daughter,0.00187243952771
funny,0.0018694822201
shake,0.00186588449683
drink,0.00186516893676
under,0.00186513653518
cracking,0.00185683453172
times,0.0018509351217
apart,0.00184319589294
inner,0.00184260999995
stating,0.00184247606081
legs,0.00183950690288
today,0.0018301134634
small,0.0018232895609
though,0.00182175338086
happened,0.00181898958142
arms,0.00181466265237
hives,0.00180120263422
full,0.00179990631156
form,0.00178618752952
until,0.00178392595814
strange,0.0017795553
1000mg,0.00177111674158
gel,0.00177070758241
plus,0.00176784523594
seems,0.00176207557368
safe,0.00175703521961
07,0.00174026457214
each,0.00173824119601
comfortable,0.00173354762557
triple,0.00171404416161
starting,0.00170856473699
most,0.00170464412329
looking,0.00170390452448
06,0.00170276152757
available,0.00169885003673
done,0.0016916897076
expired,0.00169101805532
wife,0.00169099856444
allergic,0.00167487658028
looked,0.00165704223123
isn,0.00165446240305
moldy,0.00165304170491
disney,0.00165140737955
swelling,0.00165001693178
eat,0.00164066609357
film,0.00162768621114
larger,0.00162459053174
attention,0.00162334186763
crush,0.00162243525486
case,0.00161677729758
sticky,0.00160691315167
buying,0.00160351286447
misleading,0.00160202595828
making,0.00159789231748
serving,0.00159433964253
sent,0.00158795733901
who,0.00158031343896
sure,0.00157319231751
walmart,0.00156806183271
magnesium,0.00156640226742
added,0.00156162677097
purchasing,0.0015606724737
neck,0.0015580678731
stick,0.00155784962934
butter,0.00155040824768
older,0.0015481914444
state,0.00154312453158
falling,0.00154112094564
ae,0.00153608671382
seeing,0.00153395514894
received,0.00153123453037
thank,0.00152633790761
several,0.00152065684823
treatment,0.00151077240184
easier,0.00151061066233
25pm,0.00150777983669
bp,0.00150471284913
actually,0.00150365549913
gone,0.00150136215286
issues,0.00149866580905
rancid,0.00149825827516
daily,0.00149520498701
500mg,0.00149181846666
keep,0.00149006267614
cracked,0.00148938701953
high,0.00148816126713
helping,0.00148089456575
returned,0.00148078734367
bumps,0.00147626747348
jc,0.00146811537752
free,0.00146764781049
refused,0.00145952275717
46pm,0.00145925249147
let,0.00145728288653
pack,0.00145636152956
boxes,0.00145343872059
ones,0.00144649038363
multi,0.00144087154898
try,0.00143990190887
refrigerate,0.00142843434419
notice,0.00142616760473
morning,0.00142522445561
super,0.00142022783285
came,0.0014198772122
outside,0.00141921106721
love,0.0014187447588
changes,0.00141834323272
replacement,0.00141680357196
garlic,0.00141611930476
milk,0.00141275781895
resolved,0.00141219319203
stop,0.00141185628154
give,0.00140604471084
easily,0.00140168800944
30pm,0.00139721881428
top,0.00139348697452
scoop,0.00138143652109
50,0.00137941630615
cream,0.00137792045759
supplements,0.00137290958672
fine,0.00136128409885
sour,0.00136009506077
side,0.00135987736673
weird,0.00135657993524
shape,0.00135635683259
hour,0.00135559010813
consume,0.00135516800957
supplement,0.00135498982269
continue,0.00135419029434
40,0.00135313498846
normally,0.00133620628375
36pm,0.00133506452079
usual,0.00133417885255
la,0.00133219797233
tell,0.00133072241747
spoke,0.00132542221345
plastic,0.00132173166357
brittle,0.00132101490301
packaging,0.00131724437754
re,0.00131338090113
yesterday,0.00131030753079
000,0.00130528217903
quality,0.00130495210013
weight,0.00130099061573
clear,0.00130092703544
acne,0.00129838629703
batch,0.00129185876896
clumped,0.00129176440147
advised,0.00128952825478
listed,0.00128945806562
20pm,0.00128905915435
price,0.00128893286545
probiotic,0.0012813170751
contents,0.00127787320052
ok,0.00127407303161
ingredient,0.0012728387549
gave,0.00127063209187
growing,0.001270241795
gummy,0.00126675327992
chewable,0.00126611403886
rotten,0.00126164993403
stronger,0.00126129455467
coloring,0.00125737806705
57pm,0.00125727504917
requested,0.00125351710802
cranberry,0.00125313900736
couple,0.00125015426538
cinnamon,0.0012500960899
40pm,0.00124600947494
cap,0.00124519227034
bi,0.001243242234
trouble,0.00123992752877
gets,0.0012360118197
mentioned,0.00123598048612
regarding,0.00123412400552
flex,0.00123251008308
split,0.00123224918396
instead,0.00123206386314
maybe,0.00122601060156
come,0.00122548453625
unhappy,0.0012243294584
bit,0.00122418601662
thanks,0.00121492773492
hot,0.00121266730439
fiber,0.00121222310119
39pm,0.00121138301794
tongue,0.0012101714471
omega,0.00120927291298
containers,0.00120573725877
feeling,0.00119993902888
regular,0.00119701380978
nb,0.0011924757207
sometimes,0.00119078045906
natural,0.00118759936677
fall,0.00118503885154
claiming,0.00117498181954
needed,0.00117148783483
health,0.00117135429728
fup,0.00116994946355
choked,0.00116801961481
yet,0.00116768743203
extra,0.00116488489255
head,0.0011625054146
complete,0.00115556938101
sticking,0.00115446630652
minutes,0.00115305749215
retailer,0.00115271837334
refrigerated,0.00115084432399
flavors,0.00115053299758
additional,0.00114283581741
prior,0.00113682493381
paid,0.00113658889606
hours,0.0011362789611
mcg,0.00113527177764
threw,0.00113373754425
rough,0.00112657076375
advanced,0.00112419953824
thing,0.00112407567417
05pm,0.00112060136643
son,0.00111736248987
10pm,0.00111611968385
event,0.0011156148768
understand,0.0011148502081
already,0.00111368866171
37,0.00111134116207
supposed,0.00111114953886
become,0.00111016685141
missing,0.0011069811581
artificial,0.00110632731321
company,0.00110546923624
joint,0.00110366297269
later,0.00109987899944
order,0.00109689920993
coconut,0.00109656882488
appear,0.00109523402986
glucosamine,0.00109429958365
their,0.00109264821
15pm,0.00109185856898
problems,0.00109036574104
loves,0.00107966614827
animal,0.00107939803524
else,0.00107763728706
kind,0.00107739598256
corn,0.00107386723005
pink,0.00107273457837
gotten,0.00107215299968
letter,0.00106922321296
rather,0.00106523048094
became,0.00106285913235
guarantee,0.00106192609537
compared,0.00106155489102
foul,0.00106000584257
26pm,0.00105944853478
similar,0.00105710636696
info,0.00105655996987
believe,0.00105165380638
frosty,0.00105161860353
56pm,0.00105113241457
ps,0.00104980737678
sick,0.00104863893642
01pm,0.00104601627013
38,0.00104453446048
trying,0.00104276740443
speckled,0.00104217279169
41,0.00104214177956
people,0.0010415448571
multiple,0.00103783849358
four,0.00103758228427
needs,0.00103744997513
turned,0.0010348829311
original,0.00103452256368
such,0.00103429562933
finished,0.00102754318289
upon,0.00102446387161
costco,0.0010235398308
next,0.00102079554999
rock,0.00101948147868
others,0.00101725387471
1200mg,0.00101705453713
09pm,0.00101645909078
nature,0.00101622028202
33pm,0.00101612327208
currently,0.00101422587782
entire,0.00101366056255
aftertaste,0.0010122853255
lack,0.00101180729269
cloudy,0.00101106586085
rtd,0.00101054827988
34pm,0.00101005918555
particular,0.0010088259654
doing,0.00100749097944
leg,0.00100713177905
food,0.00100545143458
fact,0.00100463483548
huge,0.00100457176361
sucralose,0.00100402192977
joints,0.00100238952966
31pm,0.00100148990798
44pm,0.000997151651146
evening,0.000996918233314
print,0.0009968294226
either,0.000996240435197
wasn,0.000995504362233
kids,0.000993341505313
least,0.000993324913422
33,0.000989297026271
severe,0.000985861316905
turning,0.000984447569824
requesting,0.000984342810134
spring,0.000983343409667
valley,0.000983343409667
chalky,0.000981993878914
mixed,0.000979261940355
16pm,0.000979193872227
41pm,0.000976794013324
properly,0.000976056417897
specs,0.000970964723102
loss,0.00096869763148
cutting,0.000964751180391
caplet,0.000963760866556
yellow,0.000961867465936
emailed,0.00096153179433
above,0.000960345796056
reformulated,0.000959998731772
further,0.000959937356467
11pm,0.000957725422635
addition,0.000957672697592
uses,0.00095742723872
flushing,0.000956194147945
msm,0.000955764953353
burning,0.000953066151588
brands,0.000952913194051
47pm,0.000952863410593
self,0.000952035369222
short,0.000951702183519
towards,0.000948836310127
exp,0.000946710193625
1200,0.000945931917647
nasty,0.000939460552535
hand,0.000939065580379
bh,0.000938336980926
lost,0.00093763431709
krill,0.000937602469418
bring,0.000936994497402
commercial,0.000936900563362
end,0.000936717458254
history,0.000935817277664
horse,0.000933668561682
extremely,0.000933210611457
iron,0.00093157368833
seemed,0.000930358937196
32pm,0.000928924121387
follow,0.000928222224097
slightly,0.000927016341865
wondering,0.000924864909829
area,0.000924068683824
dead,0.000923871486582
rich,0.000920510562152
dont,0.000919319582015
described,0.000919040638251
age,0.000918465138879
muscle,0.000917682961917
clumpy,0.000917557540084
bounty,0.000917537601858
local,0.000916238028322
nauseous,0.000914908426524
metallic,0.000914159409149
realize,0.000913039408057
medications,0.000910887113682
sealed,0.00090886141718
unsure,0.000905808730251
recommended,0.0009052427336
receive,0.000904707866762
ruptured,0.000904604146112
pimples,0.000904517326224
address,0.000903097175602
easy,0.000901285144113
switched,0.000901123725031
cancer,0.000896587150883
99,0.000891548468563
12pm,0.000889604009325
heard,0.000888263764741
during,0.000885521502564
allergies,0.000883281959315
leaves,0.000879517564571
drinking,0.000878623836256
confirmed,0.000877149346099
vit,0.000876184860331
disgusting,0.000875688731921
lips,0.000872252434297
those,0.000871734808504
things,0.000871694713643
knee,0.000868662129617
below,0.000867875333372
current,0.000867770940311
55pm,0.000867435519287
consuming,0.000865329759484
07pm,0.000864019448205
middle,0.000863084576193
lumpy,0.000860952543905
double,0.000860914547007
increased,0.000860415176039
cant,0.000858639325019
levels,0.000858549044964
friend,0.000858435915435
appeared,0.000855321621127
flush,0.000854598130008
finds,0.000850937215293
200,0.000850728212044
hoping,0.000848486765531
couldn,0.000846989277678
creatine,0.00084578028296
item,0.000844144815393
cramps,0.000843422179156
care,0.000841986915663
34,0.000837593326785
50am,0.000836279064677
musty,0.000835447358596
must,0.000834638092189
potassium,0.000834516491668
eyes,0.000834462978343
strawberry,0.000829522402699
wish,0.00082528856209
biflex,0.000821959689742
puts,0.000821419866345
nausea,0.000820182811232
growth,0.000819474061995
thick,0.000817949738422
might,0.000817427044089
pieces,0.000817372348896
5mg,0.000817182080126
treat,0.000815866249233
27pm,0.000815744695771
absolutely,0.000815609723064
substance,0.000815438288172
enough,0.000814887026261
diarrhea,0.000814778124818
1000,0.000813358845664
52pm,0.000809871336995
knees,0.000807754269108
condition,0.000806917440647
38pm,0.000806382994497
benefits,0.000805955703974
b12,0.000803919281492
princess,0.000803890764341
peeling,0.000803309438033
cholesterol,0.000803064455738
target,0.000800239553178
real,0.000799439839659
choking,0.000798196245039
happen,0.000797772762559
chest,0.000797087525499
90,0.00079564905199
complaints,0.000794670445861
thicker,0.000793596669126
effects,0.000792712076893
raised,0.00079164463353
43pm,0.000790707437193
given,0.00078726413206
2nd,0.000785101248449
rashes,0.000784902674779
allergy,0.000784003652055
pull,0.00078209380574
changing,0.000781376407207
04pm,0.000780242549262
gluten,0.000779053982305
ct,0.000779003938093
grow,0.00077858644822
class,0.000777932907503
reddish,0.000775683399818
45,0.000775679445988
okay,0.000775424608464
complaint,0.00077540544168
24pm,0.000775169627916
wrote,0.000775137167781
gross,0.000773701251426
purchases,0.000773229642977
realized,0.000773101846492
33am,0.000771295429487
roasted,0.00077096360668
bigger,0.0007704206348
exactly,0.000770223641406
03pm,0.000766623997333
00a,0.00076598385618
indicate,0.000764885627696
seek,0.000764746895615
garbage,0.000764333283109
throughout,0.000763802462121
isolate,0.000762818582695
won,0.000762334761899
intervention,0.000760665334003
medication,0.000760081895959
offer,0.000758850228332
chip,0.000757086130904
breakout,0.000756838730848
coupon,0.000756742124224
reason,0.000755786567076
smelt,0.000755693356313
wet,0.0007551916406
rest,0.000754989159515
chewing,0.00075432930743
31am,0.000753585862216
quite,0.000752945261944
mildew,0.000751308599175
48pm,0.000751169028209
deluxe,0.000750671517601
harder,0.000750418681459
12am,0.000749259264958
amounts,0.000749241834132
advise,0.00074903729676
32am,0.000747157992635
effect,0.000747072584421
burned,0.00074611379822
sought,0.000744585565793
barely,0.000743523065148
name,0.000742413051585
works,0.000742083850584
35am,0.000741353650569
57,0.000741024569772
51pm,0.000740829550635
children,0.000739601937586
feet,0.000739226191468
iu,0.000738701323539
prefers,0.000737300841917
aware,0.000736475318745
100,0.000736269254053
brownish,0.000735258817672
unfortunately,0.000734483107506
appears,0.000734433038851
locate,0.000734333755928
itch,0.000734032977053
tasting,0.000734021699423
best,0.000733028812178
breakouts,0.000731418006829
package,0.00072965467622
chewy,0.000728935877696
labeling,0.000726986518869
orange,0.000726550711046
bathroom,0.000725093215386
awhile,0.000724009479762
hurt,0.000721954377985
150,0.000721232667373
based,0.000720962243407
25am,0.000720539803772
45pm,0.000718885459289
47,0.000718492930261
coffee,0.000717908228002
00am,0.000717487731113
improved,0.000714411805706
im,0.000713570820608
35pm,0.000711851353579
liver,0.000711722248611
here,0.000711027147322
clumps,0.000710273287795
solgar,0.00070935978799
code,0.000709289934481
appearance,0.000708850850994
cold,0.000705916410894
reduced,0.000702706374458
complained,0.00070132046594
value,0.000699918380044
between,0.000699678635143
lighter,0.000699648142669
version,0.000699130101288
expire,0.000699023563592
surgery,0.000698856089557
thin,0.000697814626042
burps,0.000693257846677
37pm,0.000693087290071
touch,0.00069229078173
improvements,0.00069215677121
hi,0.000691983889854
54pm,0.000689348435467
noted,0.000689027885063
painful,0.000688777341264
acid,0.000687470372274
passed,0.000685829353773
choke,0.000685199158195
along,0.000684932220287
56,0.000684205464262
toxic,0.000684020157554
suggested,0.000683430780352
brought,0.000681997285744
especially,0.000680377568358
solid,0.000679317661819
discontinue,0.000676740537677
gelatin,0.000674483405127
arm,0.000674333924121
related,0.000673707811258
certain,0.00067289680293
questions,0.00067245530412
comes,0.000672298058219
ginkgo,0.000671410572609
21pm,0.000668392975433
light,0.000666890250809
60,0.000665588089527
subsided,0.000663745483954
upc,0.00066262945109
everything,0.000662490703133
placed,0.00066166845246
home,0.00066064187719
co,0.000657572765839
woke,0.000655725622874
22pm,0.000655614033614
hope,0.000655431487933
numbers,0.000654467617396
remember,0.000654362635448
confusing,0.000653281748334
green,0.000652867135033
23pm,0.000652736243977
someone,0.000649782052054
newer,0.000647848052092
known,0.000647427800675
immediately,0.000646638456701
variety,0.000646600358163
club,0.000646593559171
spit,0.000645473406544
42am,0.000644966803682
separate,0.000644864130186
500,0.000643563231141
dermatologist,0.000642093806508
gooey,0.0006391954437
gmo,0.000635784402334
3rd,0.000635753737873
relief,0.000635374938811
energy,0.000634913187408
twin,0.000634479547799
flashes,0.000634063600697
250,0.000633090150183
flavored,0.000632975025823
lecithin,0.000631762996424
14pm,0.000631583983439
eating,0.000631057076348
present,0.000629816763795
swollen,0.000629436393512
although,0.000626981207742
cost,0.000626779269681
result,0.000622292405209
round,0.00062215919918
forehead,0.000620372219671
stores,0.00061980183893
soon,0.000618912315413
42pm,0.000618772321728
00,0.000617708120828
root,0.000617078602389
content,0.000617023063415
lower,0.00061647534559
release,0.000614904293246
answer,0.00061471223899
list,0.000613614412302
medicine,0.000612583377771
polish,0.000611512641042
returning,0.000611169986712
loved,0.000608795932596
picked,0.000608058457948
dosage,0.000607117390415
adverse,0.000607032188278
twice,0.000606647318851
stevia,0.00060577910647
weak,0.000605670345324
expensive,0.000604659001975
source,0.000602541711156
met,0.000602136674284
58pm,0.000602083507969
matter,0.000602019883951
choc,0.00060154794671
start,0.000601013647786
line,0.000600172553176
prescribed,0.00059970978002
discolored,0.000599418765942
clearly,0.000598021831042
dose,0.00059785518426
soybean,0.000597402907848
seeking,0.000596741992865
45am,0.000596278312896
2000iu,0.000596071496695
recent,0.000595193036296
recommend,0.00059327719416
pains,0.000592778113901
2016,0.000592184243212
59,0.000591605835421
possible,0.000591040234235
likes,0.000590647917234
chromium,0.000590533128252
sensation,0.000590347289941
18pm,0.000590272472592
non,0.000589928788165
06pm,0.000589657623357
ordered,0.000588237473246
report,0.000587664375765
spent,0.000587377701075
wont,0.000585044159161
59pm,0.000584270109546
glass,0.000583930444144
49pm,0.000583647851984
17pm,0.000583566152944
06am,0.000583408314267
nose,0.000583326138573
gritty,0.000583036568992
10a,0.000582038916357
10am,0.000580939669739
benadryl,0.000580261673297
third,0.000580151595448
decided,0.000579546343851
drank,0.000579237248896
diet,0.000577992554059
sorry,0.000576402494782
waste,0.000575950975315
fat,0.000573895001561
dob,0.00057353398207
1000iu,0.000572585642623
ended,0.000570284244301
menopause,0.000569321446016
six,0.000569199735526
redness,0.000568635051664
19am,0.000568506241992
included,0.000568187783725
noticeable,0.00056655789944
mess,0.000566124993677
49,0.000565831165447
online,0.000565625071914
low,0.000564446878428
contact,0.000564212953524
fingers,0.000564169473297
point,0.000563807844836
adult,0.000563330106938
question,0.000562485902837
writing,0.000562144149586
totally,0.000560609410525
including,0.000559869828677
causes,0.000559784430888
removed,0.000559723171808
urine,0.000559499963146
coq10,0.000559246505111
40p,0.000558805433122
primrose,0.000558128473579
far,0.000556296541726
sublingual,0.000555606783391
keeps,0.000554451099593
ii,0.000554423425182
labels,0.00055415031058
worst,0.000553755286906
nutrition,0.000552134723142
chelated,0.000551804736125
multivitamin,0.000551320186413
important,0.000551271690471
baked,0.000550666229968
rx,0.000548776763428
36am,0.000548205297996
released,0.000547457319542
thinner,0.000547190668857
part,0.000546892224794
sending,0.000546068415069
shoulder,0.000545987423392
lid,0.000545941132589
lose,0.000545836089807
wasted,0.000544543842193
directed,0.000544182861126
headache,0.000543850056138
indicated,0.000543232293889
length,0.000542495322685
fresh,0.000541740208719
ache,0.000541682122824
flaxseed,0.000540308099392
hung,0.000539370843879
shaped,0.000538333623745
complaining,0.000537192894017
lasted,0.00053664209897
behind,0.000536556684995
arthritis,0.000536139984769
2013,0.000535578317668
add,0.000535552039531
pos,0.000535203004747
26am,0.000534374961947
system,0.00053307472128
28am,0.000532936472958
specific,0.000532894893351
include,0.00053254978741
sleeping,0.000531946046665
pressure,0.000531836071079
child,0.000531637676608
eye,0.000531563681921
palmetto,0.000531115153896
50pm,0.000530964827095
blend,0.000529358791534
workout,0.000528666768368
haven,0.00052837924544
lip,0.000528345869066
welts,0.000528307761129
mean,0.00052817007507
website,0.000527926699295
heart,0.00052726867985
scalp,0.000526634932848
smooth,0.000525965072265
knows,0.000525932399147
frustrated,0.000525545660662
fully,0.000525226629831
aren,0.000523116067005
19pm,0.000522972047903
crack,0.000522716353318
52,0.000522198336838
peanuts,0.000520953998465
test,0.000519929915257
stand,0.000518367178459
edge,0.000517970013317
spread,0.000517510227907
3mg,0.000516880107736
count,0.000516866246823
warning,0.000515182964832
balance,0.000514838916769
thinning,0.00051403680632
air,0.000512433367138
chin,0.000512243152093
wouldn,0.000511112704539
anywhere,0.000510801555947
initially,0.000509658778199
investigation,0.000509455673016
pre,0.000509165359522
place,0.000509000330078
turns,0.000508934599239
facts,0.000508751881314
putting,0.000508276471361
check,0.000508142572073
53pm,0.000507216518771
scoops,0.000506799949239
nearly,0.00050656358834
support,0.00050639825894
informed,0.000505540682815
breathing,0.000505194597483
synthetic,0.000504918156516
healthy,0.000504503468709
happens,0.000504444985551
carbs,0.000504106138476
appointment,0.000503784164813
cramping,0.000503474178267
sweats,0.00050253785248
directions,0.000501417002513
burping,0.000500491815161
pretty,0.000500337983136
32,0.000499892210552
increase,0.000499654750878
alcohol,0.000499479567776
patient,0.000498968700395
moisture,0.000498716343233
containing,0.000498541204469
15am,0.000496610176957
kept,0.000496496857136
future,0.000495910361811
user,0.000495866140158
describe,0.00049534606153
37a,0.000493987264878
except,0.000493150098474
softer,0.000492283722195
forward,0.000491231708026
near,0.000491164783426
hopes,0.000491011418861
feedback,0.000490994299128
diagnosed,0.000490229829264
hello,0.000488621659625
sensitive,0.000488252726886
favorite,0.000488077500627
exposed,0.000488070006376
leave,0.000487991366603
goes,0.000487870981532
declined,0.000487216760741
eats,0.00048689660683
sulfur,0.000486156574182
phone,0.000485367738157
weekly,0.000484391069256
tea,0.00048378285089
walgreens,0.000483654379329
chunk,0.000483486197738
58,0.000482347755519
29pm,0.000480301151523
bunch,0.000479231202733
advertising,0.000478169263906
happening,0.000477360203956
upper,0.000477309160013
sound,0.000477127914193
total,0.000476965250018
edges,0.000476832623796
mention,0.000476684920935
almond,0.000476554583584
extract,0.000476486765576
hospital,0.000474324731376
asking,0.000474202744418
possibly,0.000473734858155
liked,0.00047355446519
pharmacist,0.000472952304854
type,0.000472433943183
citrate,0.000471519554402
banana,0.000471134302408
35,0.000471009427164
yrs,0.000470095805761
room,0.000469885468085
strawberries,0.000469781613677
ours,0.000468304471913
move,0.00046786081905
unusual,0.000467795839905
grown,0.000467477998353
38am,0.00046661339922
dyes,0.000466203149606
unopened,0.00046346652874
pass,0.000463211333773
gas,0.000462371265032
chondroitin,0.000462280381745
thinking,0.000461436554055
beginning,0.000460190870578
expected,0.000460022803561
helps,0.00045935373361
jar,0.000459002050057
meant,0.000458887011299
verify,0.000458306671518
disappointing,0.000457569861294
peel,0.000456746252387
cheeks,0.000456222859683
palm,0.000455328633138
54,0.000455260383569
biloba,0.000454318653142
applied,0.000454230133217
opens,0.000454172577444
exchange,0.000453084386916
nor,0.000453053027199
sample,0.000452794432207
sore,0.000451366835577
packs,0.000449677109827
fill,0.000449207312218
46,0.000446473479609
incident,0.000445477056145
occasions,0.000445022082331
hip,0.000444984077135
ate,0.0004448105564
tingling,0.000444001515992
attempted,0.000443546355842
sharp,0.000442971871815
giving,0.000442873816733
carmine,0.000442542324522
wheat,0.000442128143971
approximately,0.000441993276565
bruising,0.000441462123589
calling,0.000440392302143
mixes,0.000439394425868
highly,0.000439142723043
overall,0.000437902212611
occurred,0.000437749840422
10mg,0.000436996805416
warm,0.00043541672398
loyal,0.000434801980494
colors,0.000433458277409
ten,0.000433147672976
oz,0.000432990592415
consider,0.000432365776968
figure,0.000432220157858
necessary,0.000429439062837
18am,0.000429082086825
regularly,0.00042767363806
december,0.000427158919823
crazy,0.000426509722378
instructions,0.000425606243342
decreased,0.000425460233632
research,0.000425329695749
across,0.000424649503003
yeast,0.00042421010671
5000,0.000423135611135
grainy,0.000422606127603
whatever,0.000422590953855
itchiness,0.000421993905665
dates,0.000421954585527
ears,0.00042033498004
headaches,0.000420194481011
creme,0.000420041887399
00pm,0.000419503716439
juice,0.000417789581248
com,0.000417296933765
sorbitol,0.000416815597261
fortress,0.000412446457679
shocked,0.000411190795995
attempt,0.000410716525526
treated,0.000410372184273
mother,0.000409842996369
moved,0.000409114544089
er,0.000407229684377
chunks,0.000406088458498
finger,0.000405195910273
sees,0.000404950970368
remove,0.000404528736907
iodine,0.000404248529889
yuck,0.000404083040476
55,0.000403581673484
gives,0.000402948457091
turn,0.000402758123123
didnt,0.00040140129445
everywhere,0.000401189647015
request,0.000400198824983
continues,0.000399424361172
rice,0.000399309680798
pharmacy,0.000399276484502
dr,0.000399060691167
oxide,0.000398923173751
eventually,0.000397610778434
grew,0.00039728756959
36,0.000397126908573
amazon,0.000395569565826
eaten,0.000395119198731
verified,0.00039435031805
nemo,0.000393843507927
receiving,0.000393633949948
discontinuing,0.000393461152815
39,0.000393453542068
mail,0.000392247063443
yours,0.00039207191834
prepaid,0.000391298552457
friends,0.000388588779206
cookies,0.000386005260314
belief,0.000384145198334
life,0.000378928563514
emergency,0.000378395725469
saying,0.000375576303581
dissolved,0.000375449426942
180,0.000375446796272
1st,0.000375290602465
ongoing,0.000374384831669
control,0.00037357943847
tree,0.000372356410151
mostly,0.000370494234839
affected,0.000370089276847
personal,0.00036889245004
5000mcg,0.000368769452084
13am,0.000367685413602
discovered,0.000365839455658
toes,0.000365026964333
recall,0.000364234534796
developing,0.000363711737273
eczema,0.000363224970524
throw,0.000362957321609
02pm,0.000361656950982
safety,0.000360710084826
greatly,0.000360171202407
terribly,0.00035759541856
doctors,0.000357482058505
blotches,0.000357122590421
thrown,0.000355751559571
details,0.000355725095381
resolve,0.000355694176293
figured,0.000354835985365
blue,0.000353596657973
ask,0.000353125538064
cuts,0.000352751850056
afraid,0.000352259462369
customers,0.000352206249055
formulas,0.000351970158275
women,0.000350174576805
losing,0.000349873392261
breakfast,0.000349451696959
43,0.000349333837832
70,0.00034932012228
continued,0.000347833929159
show,0.000347418687022
thighs,0.000346413930113
review,0.000345774990461
slight,0.000344934114991
located,0.000344420083246
guys,0.000344417100847
underneath,0.000344127925316
foreign,0.00034396814417
sale,0.000341154732166
own,0.000340041631067
solutions,0.000338752258808
optimal,0.000338752258808
family,0.000338399646591
throwing,0.000337436310696
concern,0.000335792291533
proprietary,0.000335442744956
dough,0.000334800641351
cookie,0.000334800641351
documented,0.000332906917196
sundown,0.000332090572559
fell,0.000330503886069
anti,0.00033048293134
live,0.000329517294967
starts,0.000329062051181
intake,0.000327026182962
knew,0.00032668911631
note,0.000326389955201
events,0.000326308828175
sort,0.00032484255262
shot,0.000324315008478
becomes,0.000324093115488
experiences,0.000322837653358
indication,0.000321799021266
confused,0.000320958193031
fan,0.000319282872443
itched,0.000318666468325
hurting,0.000318234052426
originally,0.000317017317527
response,0.000316710850746
numerous,0.000316202185426
unspecified,0.000315832768107
whether,0.000315196086606
june,0.00031517203467
closed,0.000314190882071
recommendation,0.000313406879544
vomiting,0.000313064069004
appropriate,0.000312752337462
dinner,0.000312337041196
anyone,0.000310508601203
ll,0.000310485617202
organic,0.000309986031944
subside,0.000308591931491
walk,0.000308212490852
record,0.000306779213031
notes,0.000304241219173
bleeding,0.00030417224266
higher,0.000303238608903
wrists,0.00030289834008
disease,0.000300319205165
bedtime,0.000299953255859
switch,0.000298258701672
carry,0.000295982141069
ultimately,0.000295240272239
cough,0.000294438313641
ankles,0.00029370603823
allow,0.000293426853923
scary,0.00029312608811
coughing,0.000292777537074
prescription,0.000292087896924
house,0.000290133113941
cleared,0.000286981916079
paper,0.00028685853711
burn,0.000286783226375
heat,0.000286531980045
nurse,0.000286100637306
topical,0.000285834401752
benedryl,0.000283536922733
stiff,0.000281854646495
concerns,0.000281724725934
tolerate,0.00028170925063
definitely,0.000278246365533
restarted,0.00027802150912
probably,0.000277221623808
physician,0.000276864509105
tests,0.000276209996541
irritation,0.000275413643836
thanked,0.00027520769554
dangerous,0.000274066867713
often,0.000273068686042
office,0.000270640488155
specifically,0.000270091316047
checked,0.000269084900935
clarified,0.000268753464257
tightness,0.000268047568058
breathe,0.000267661510133
determine,0.000267240745552
diagnosis,0.00026677510935
monday,0.000265670344903
regards,0.000264654201426
consumed,0.000262472190443
develop,0.000261896803468
helpful,0.000261781749884
pick,0.000261138908454
clearing,0.000259523958565
numbness,0.000255334076567
require,0.00025477532484
uncomfortable,0.00025448173771
blisters,0.000253288939959
testing,0.000252326872534
sink,0.000251898815287
md,0.00025093032625
believed,0.00024841618115
elsewhere,0.000248167353879
close,0.000246506905178
finally,0.000245943582077
stress,0.000245252384
scratching,0.000243341861716
fevers,0.000242822628249
idea,0.00024199193557
considering,0.000241180137342
followed,0.000240693504286
following,0.000239985049892
covered,0.000237295231973
situation,0.000234071577283
updated,0.000232814335456
department,0.000232810841309
sunday,0.000232297698271
stopping,0.000231782504957
slowly,0.000231514814397
etc,0.000230695551459
unless,0.000228654599016
drop,0.00022845618225
pcp,0.000222207762889
swell,0.00021987111945
likely,0.000219701121768
hydrocortisone,0.000219249880608
ran,0.000218599076275
scared,0.000217159862915
respiratory,0.000214867509252
thus,0.000208823732543
replied,0.000207638548699
appreciated,0.000207268812669
stayed,0.000202288621934
talk,0.000200338088664
determined,0.000198381610103
concomitant,0.000193686059755
initial,0.000192578616435
treating,0.000192041821148
names,0.000191339681969
herself,0.000190026907796
epipen,0.000187899136361
speak,0.000182466206056
orally,0.000179453612344
remains,0.000175825222368
airway,0.000175297173892
required,0.000173933895616
dizziness,0.000173370600657
affect,0.000170443326038
friday,0.000165671691481
bed,0.000163811667539
serious,0.000161491851243
unknown,0.00015775555308
primary,0.000156825676753
internal,0.000140743211531
closing,0.000139923182601
walking,0.000125709213051
